[
  {
    "_id": "5f13684658020973c55253d1",
    "intro": "In aute labore magna ipsum anim quis reprehenderit. Anim commodo nostrud anim deserunt non nisi. Enim non culpa non adipisicing aliquip anim. Enim dolor mollit non labore magna duis eiusmod sunt incididunt nisi voluptate. Reprehenderit est officia do dolor cupidatat ut nostrud enim non fugiat mollit.\r\n",
    "followers": 91,
    "education": "Graduate",
    "Experience": "Officia culpa cillum non veniam anim cupidatat dolore non velit quis voluptate voluptate qui enim. Ea officia ipsum laborum sit incididunt laboris enim laboris. Adipisicing occaecat elit cillum labore nostrud adipisicing do dolor fugiat laborum. Adipisicing mollit proident anim exercitation culpa cupidatat tempor proident incididunt. Non nulla adipisicing consectetur amet ullamco magna officia laborum ullamco Lorem consequat proident nostrud.\r\n",
    "skills": "Aute elit mollit dolor tempor aute. Sit in do ea ullamco culpa est aute ut anim do in. Laboris ipsum in excepteur ea aliquip laboris proident. Sunt in irure aliquip aliqua consectetur in nisi mollit ullamco. Cupidatat laboris labore tempor labore.\r\n"
  },
  {
    "_id": "5f136846bcbc228a4b312fae",
    "intro": "Culpa laboris reprehenderit dolor mollit aliqua. Adipisicing id adipisicing culpa esse cillum incididunt esse do eiusmod quis do ex. Quis reprehenderit qui aute enim adipisicing consectetur ex eiusmod. Commodo eiusmod exercitation sint dolor ullamco aliquip consequat consequat culpa esse exercitation fugiat esse. Aliquip esse in incididunt velit ut ea laborum cupidatat et consequat proident sint.\r\n",
    "followers": 118,
    "education": "12th",
    "Experience": "Laborum aliqua consequat sit sit aliquip cillum consequat cupidatat eiusmod. Pariatur duis cupidatat commodo cillum non nisi ipsum. Occaecat eu excepteur ut et dolor incididunt cillum labore est velit aute culpa. Sunt sunt elit aliqua ut aliqua. Qui sit amet do excepteur esse est nisi mollit et irure ex eiusmod mollit Lorem. Nostrud in ut sint anim ipsum pariatur irure esse duis eu exercitation veniam incididunt veniam. Exercitation sunt dolor do irure commodo cillum ipsum sunt enim culpa voluptate incididunt magna esse.\r\n",
    "skills": "Culpa exercitation anim amet ullamco irure occaecat ea labore ex duis. Velit nisi minim aute sunt nisi sint qui culpa. Cupidatat dolor laborum adipisicing minim cupidatat est fugiat officia in irure proident qui proident. Incididunt cillum non fugiat sint sunt consequat nisi esse reprehenderit pariatur irure.\r\n"
  },
  {
    "_id": "5f136846736fe23a3f7ff6bf",
    "intro": "Voluptate dolore enim anim ea nisi quis nisi. Incididunt eu dolor nisi adipisicing duis nisi fugiat esse. Voluptate irure minim exercitation id fugiat aliqua ea ut.\r\n",
    "followers": 62,
    "education": "PhD",
    "Experience": "Laboris velit est quis ea velit amet duis cupidatat in. Deserunt reprehenderit minim reprehenderit eu sint exercitation eu. Officia esse laboris non sunt officia duis elit incididunt veniam excepteur sit labore. Adipisicing do non minim nisi cupidatat cupidatat commodo fugiat sunt id id enim laboris. Dolore culpa occaecat officia nulla cupidatat nulla qui duis in. Minim officia reprehenderit aliqua ea sint sit aute anim aliquip cillum fugiat nulla.\r\n",
    "skills": "Voluptate commodo cupidatat sunt consectetur ea officia aute duis anim exercitation eiusmod ea duis. Laboris adipisicing aute exercitation enim excepteur eu pariatur esse veniam et eu minim. Ullamco consequat ex proident est exercitation cupidatat magna Lorem anim. Ut fugiat velit nulla voluptate et. Elit cillum pariatur nostrud reprehenderit nostrud cillum labore sint. Tempor ex veniam consectetur adipisicing ea dolor qui consequat nostrud id enim reprehenderit in sunt. Esse aute in culpa occaecat cillum ut occaecat in ut.\r\n"
  },
  {
    "_id": "5f1368463087e283301424fd",
    "intro": "Labore laboris sunt velit irure nisi. Eu cupidatat tempor tempor mollit sunt adipisicing ipsum tempor cillum aliquip nulla tempor. Nulla nisi voluptate ea cillum pariatur minim in anim. Culpa nulla nisi dolore fugiat eiusmod eu quis fugiat ex velit quis sunt. Magna enim sit officia sunt.\r\n",
    "followers": 24,
    "education": "PhD",
    "Experience": "Cupidatat do duis ea et aliqua duis tempor enim est. Ut mollit elit consequat aliqua aliquip. Commodo magna Lorem proident fugiat anim excepteur aute officia. Minim aliqua enim id velit officia qui cillum velit reprehenderit reprehenderit magna dolore. Ullamco velit pariatur consequat aute nisi sint ea. Fugiat consequat mollit quis deserunt ipsum proident veniam esse eiusmod cillum. Sit amet nisi officia excepteur ullamco magna aute elit consectetur eu et ullamco culpa mollit.\r\n",
    "skills": "Consectetur adipisicing nisi culpa sunt duis officia proident aliquip elit ullamco. Est id minim aliquip mollit ut qui nulla et non. Nisi culpa cillum ipsum minim esse dolore et nulla dolore occaecat pariatur pariatur occaecat.\r\n"
  },
  {
    "_id": "5f13684642d7b38120f103d2",
    "intro": "Eu magna mollit et deserunt labore est ea ea enim nisi ullamco adipisicing sunt. Mollit aute consequat esse laborum eu nostrud nostrud labore. Mollit laboris laborum cupidatat Lorem nisi tempor ad magna cillum proident. Ex reprehenderit dolor fugiat tempor ex commodo sit cillum sunt nostrud excepteur et culpa. Officia Lorem voluptate ipsum ex velit duis velit deserunt. Reprehenderit sint quis sit minim nisi laboris ullamco deserunt laborum nisi labore consequat. Magna ad quis ipsum exercitation proident.\r\n",
    "followers": 84,
    "education": "Post Graduate",
    "Experience": "Sunt anim velit nulla deserunt. Velit veniam consequat ut amet est velit. Ipsum dolor magna amet esse.\r\n",
    "skills": "Commodo laboris magna consectetur quis dolor amet ea fugiat officia id. Adipisicing ad anim in veniam duis dolore non consequat occaecat. Enim enim in eu nulla officia do in est cillum. In labore anim occaecat enim labore. Anim id non nisi sunt id cillum aliquip. Occaecat voluptate enim et qui cupidatat.\r\n"
  },
  {
    "_id": "5f13684669f7de8a7b8da014",
    "intro": "Sunt ea magna ea pariatur. Culpa nulla pariatur deserunt cupidatat labore qui reprehenderit consequat adipisicing. Dolor voluptate pariatur non duis. Ad ex irure cupidatat elit incididunt tempor eu magna id quis. Ullamco in cupidatat commodo laborum proident elit. Excepteur sit in ipsum non Lorem deserunt tempor excepteur esse fugiat sunt dolore nisi sint. Deserunt ea consectetur magna velit culpa anim sint incididunt ex minim in elit.\r\n",
    "followers": 62,
    "education": "12th",
    "Experience": "Laborum excepteur mollit eu esse in nulla ex esse magna laboris sunt minim duis est. Laborum cillum enim quis culpa exercitation commodo sint irure. Ut et voluptate consectetur do.\r\n",
    "skills": "Tempor ad consequat nisi non ut qui deserunt consequat adipisicing nisi cupidatat commodo pariatur. Excepteur sit cillum nisi culpa et consequat ad consectetur consectetur sint consequat. Lorem exercitation duis labore sit id eiusmod laborum id magna. Aliqua labore magna veniam reprehenderit do cillum id. Sit non culpa deserunt mollit reprehenderit dolor. Enim elit id est et cillum nisi exercitation eu veniam magna ex consequat id.\r\n"
  }
]