[
  {
    "_id": "5f13645de92451f068112c7b",
    "name": "Serrano Gamble",
    "email": "serranogamble@gynko.com",
    "contact": "+91 (925) 554-3953",
    "following": [
      {
        "name": "Ana Luna",
        "profile_ID": "5f13645d76754a0850dce247",
        "usersID": "97e4658d-e4a8-4d1c-9e0f-98f05ab37385",
        "date": "2020-05-04"
      },
      {
        "name": "Yesenia Richards",
        "profile_ID": "5f13645da94b0e7a084db123",
        "usersID": "5f67a952-d31a-401e-bb5e-c01e8fa43a4e",
        "date": "2020-06-23"
      },
      {
        "name": "Sheila Jenkins",
        "profile_ID": "5f13645d4d5893353f824f9e",
        "usersID": "1856be70-8ba4-415a-a18f-34f5ba683379",
        "date": "2016-11-08"
      }
    ]
  },
  {
    "_id": "5f13645d14f92d961a64f8d0",
    "name": "Copeland Eaton",
    "email": "copelandeaton@gynko.com",
    "contact": "+91 (954) 455-2307",
    "following": [
      {
        "name": "Suarez Larson",
        "profile_ID": "5f13645d63774d6fccca0cc7",
        "usersID": "4e237794-ba6f-446d-a5de-657c10d8a51e",
        "date": "2014-02-12"
      },
      {
        "name": "Neal Mooney",
        "profile_ID": "5f13645d35604be503059a57",
        "usersID": "3f2666b4-6629-4ded-964e-b1be632f8398",
        "date": "2020-05-20"
      },
      {
        "name": "Lang Suarez",
        "profile_ID": "5f13645dec306c41f355f763",
        "usersID": "0e0339ac-3a04-4bf4-b662-e800ed87a8c0",
        "date": "2020-03-24"
      }
    ]
  },
  {
    "_id": "5f13645df669f4bd25cb2c4f",
    "name": "Cherie Bryan",
    "email": "cheriebryan@gynko.com",
    "contact": "+91 (866) 482-3521",
    "following": [
      {
        "name": "Frost Cunningham",
        "profile_ID": "5f13645d909fe055d9bcbf15",
        "usersID": "fa109517-e18e-4052-beeb-06f629b28d5b",
        "date": "2014-05-25"
      },
      {
        "name": "Jensen Scott",
        "profile_ID": "5f13645d0426f5799feddb0d",
        "usersID": "0cb7d394-48ee-43f2-b03b-5d3fa5ed6a54",
        "date": "2018-06-27"
      },
      {
        "name": "Berger Stanton",
        "profile_ID": "5f13645de1d984b2afaafcfc",
        "usersID": "920793dc-56aa-4bca-afee-0efc5e0ab87a",
        "date": "2019-01-10"
      }
    ]
  },
  {
    "_id": "5f13645d42e84817acc64e59",
    "name": "Becker Osborne",
    "email": "beckerosborne@gynko.com",
    "contact": "+91 (977) 522-2558",
    "following": [
      {
        "name": "Lyons Kline",
        "profile_ID": "5f13645d0d7e40e5941a26f3",
        "usersID": "1842649e-8faf-4573-90ef-9682d57caf49",
        "date": "2014-09-19"
      },
      {
        "name": "Sally Newton",
        "profile_ID": "5f13645d146341c1a9e0edda",
        "usersID": "9b514e65-52bd-4014-ace3-7141d3e5499e",
        "date": "2018-05-04"
      },
      {
        "name": "Perry Berry",
        "profile_ID": "5f13645d4d213236f3fc19d8",
        "usersID": "363a63ec-6e0e-4f93-81ed-7281d8e7a203",
        "date": "2015-05-18"
      }
    ]
  },
  {
    "_id": "5f13645d23717b7673b16f25",
    "name": "Cobb Gentry",
    "email": "cobbgentry@gynko.com",
    "contact": "+91 (955) 423-3152",
    "following": [
      {
        "name": "Wiley Herrera",
        "profile_ID": "5f13645d20a62f7c4456aef3",
        "usersID": "c66cfdab-46ff-4b7a-81d3-870f10519fa5",
        "date": "2019-10-25"
      },
      {
        "name": "Estella Aguilar",
        "profile_ID": "5f13645d53cf0971a836d218",
        "usersID": "64b09bbb-3d15-4487-ad7f-c93471771074",
        "date": "2016-02-24"
      },
      {
        "name": "Tabitha Noble",
        "profile_ID": "5f13645d27272134b50b3595",
        "usersID": "db91121a-94d2-48c4-84d4-44915edb9295",
        "date": "2018-09-13"
      }
    ]
  }
]



